%YAML 1.1
%TAG !u! tag:unity3d.com,2011:
--- !u!114 &11400000
MonoBehaviour:
  m_ObjectHideFlags: 0
  m_CorrespondingSourceObject: {fileID: 0}
  m_PrefabInstance: {fileID: 0}
  m_PrefabAsset: {fileID: 0}
  m_GameObject: {fileID: 0}
  m_Enabled: 1
  m_EditorHideFlags: 0
  m_Script: {fileID: 11500000, guid: bf3a1d1cbef0428fb8565a407c62d7e7, type: 3}
  m_Name: FlourRecipe
  m_EditorClassIdentifier: 
  _processingElement: 10001
  _processingTime: 5
  _inputResources:
  - _resourceType: 1
    _quantity: 1
  _outputResource:
    _resourceType: 2
    _quantity: 1
