%YAML 1.1
%TAG !u! tag:unity3d.com,2011:
--- !u!1001 &7972055318388838457
PrefabInstance:
  m_ObjectHideFlags: 0
  serializedVersion: 2
  m_Modification:
    m_TransformParent: {fileID: 0}
    m_Modifications:
    - target: {fileID: 1863866609151844829, guid: 65b9356ec99d8364ea9be40d72e1dfb0,
        type: 3}
      propertyPath: m_Name
      value: FenceShopItem Variant
      objectReference: {fileID: 0}
    - target: {fileID: 1863866609151844827, guid: 65b9356ec99d8364ea9be40d72e1dfb0,
        type: 3}
      propertyPath: _price
      value: 1000
      objectReference: {fileID: 0}
    - target: {fileID: 1863866609151844827, guid: 65b9356ec99d8364ea9be40d72e1dfb0,
        type: 3}
      propertyPath: _resourceType
      value: 10002
      objectReference: {fileID: 0}
    - target: {fileID: 1863866609151844826, guid: 65b9356ec99d8364ea9be40d72e1dfb0,
        type: 3}
      propertyPath: m_LocalPosition.x
      value: 0
      objectReference: {fileID: 0}
    - target: {fileID: 1863866609151844826, guid: 65b9356ec99d8364ea9be40d72e1dfb0,
        type: 3}
      propertyPath: m_LocalPosition.y
      value: 0
      objectReference: {fileID: 0}
    - target: {fileID: 1863866609151844826, guid: 65b9356ec99d8364ea9be40d72e1dfb0,
        type: 3}
      propertyPath: m_LocalPosition.z
      value: 0
      objectReference: {fileID: 0}
    - target: {fileID: 1863866609151844826, guid: 65b9356ec99d8364ea9be40d72e1dfb0,
        type: 3}
      propertyPath: m_LocalRotation.x
      value: 0
      objectReference: {fileID: 0}
    - target: {fileID: 1863866609151844826, guid: 65b9356ec99d8364ea9be40d72e1dfb0,
        type: 3}
      propertyPath: m_LocalRotation.y
      value: 0
      objectReference: {fileID: 0}
    - target: {fileID: 1863866609151844826, guid: 65b9356ec99d8364ea9be40d72e1dfb0,
        type: 3}
      propertyPath: m_LocalRotation.z
      value: 0
      objectReference: {fileID: 0}
    - target: {fileID: 1863866609151844826, guid: 65b9356ec99d8364ea9be40d72e1dfb0,
        type: 3}
      propertyPath: m_LocalRotation.w
      value: 1
      objectReference: {fileID: 0}
    - target: {fileID: 1863866609151844826, guid: 65b9356ec99d8364ea9be40d72e1dfb0,
        type: 3}
      propertyPath: m_RootOrder
      value: 0
      objectReference: {fileID: 0}
    - target: {fileID: 1863866609151844826, guid: 65b9356ec99d8364ea9be40d72e1dfb0,
        type: 3}
      propertyPath: m_LocalEulerAnglesHint.x
      value: 0
      objectReference: {fileID: 0}
    - target: {fileID: 1863866609151844826, guid: 65b9356ec99d8364ea9be40d72e1dfb0,
        type: 3}
      propertyPath: m_LocalEulerAnglesHint.y
      value: 0
      objectReference: {fileID: 0}
    - target: {fileID: 1863866609151844826, guid: 65b9356ec99d8364ea9be40d72e1dfb0,
        type: 3}
      propertyPath: m_LocalEulerAnglesHint.z
      value: 0
      objectReference: {fileID: 0}
    - target: {fileID: 5716317749803937038, guid: 65b9356ec99d8364ea9be40d72e1dfb0,
        type: 3}
      propertyPath: m_LocalPosition.y
      value: -0.19
      objectReference: {fileID: 0}
    - target: {fileID: 4173281957834377743, guid: 65b9356ec99d8364ea9be40d72e1dfb0,
        type: 3}
      propertyPath: m_Sprite
      value: 
      objectReference: {fileID: 21300000, guid: 9b71a2f44878b2346afa7a03ca91a689,
        type: 3}
    - target: {fileID: 1863866608476310288, guid: 65b9356ec99d8364ea9be40d72e1dfb0,
        type: 3}
      propertyPath: m_sharedMaterial
      value: 
      objectReference: {fileID: 2100000, guid: b9403adc6a2f9a347927dd5dfeaaf95d, type: 2}
    - target: {fileID: 1863866608476310319, guid: 65b9356ec99d8364ea9be40d72e1dfb0,
        type: 3}
      propertyPath: m_Materials.Array.data[0]
      value: 
      objectReference: {fileID: 2100000, guid: b9403adc6a2f9a347927dd5dfeaaf95d, type: 2}
    - target: {fileID: 1863866608476310319, guid: 65b9356ec99d8364ea9be40d72e1dfb0,
        type: 3}
      propertyPath: m_SortingOrder
      value: 10
      objectReference: {fileID: 0}
    - target: {fileID: 1863866608476310318, guid: 65b9356ec99d8364ea9be40d72e1dfb0,
        type: 3}
      propertyPath: m_Mesh
      value: 
      objectReference: {fileID: 0}
    m_RemovedComponents: []
  m_SourcePrefab: {fileID: 100100000, guid: 65b9356ec99d8364ea9be40d72e1dfb0, type: 3}
