%YAML 1.1
%TAG !u! tag:unity3d.com,2011:
--- !u!114 &11400000
MonoBehaviour:
  m_ObjectHideFlags: 0
  m_CorrespondingSourceObject: {fileID: 0}
  m_PrefabInstance: {fileID: 0}
  m_PrefabAsset: {fileID: 0}
  m_GameObject: {fileID: 0}
  m_Enabled: 1
  m_EditorHideFlags: 0
  m_Script: {fileID: 11500000, guid: 3c2857f205f94ff9b936773ed8049124, type: 3}
  m_Name: CakeDough
  m_EditorClassIdentifier: 
  _resourceType: 640
  _cost: 400
  _carrySpriteVerticalOffset: 0
  _sprite: {fileID: 21300000, guid: a7722b3cc6bb88e41b47d33735b5874b, type: 3}
  _prefab: {fileID: 684468019384295382, guid: 16399d0565738e54c857490c3d49ea42, type: 3}
  _tile: {fileID: 0}
  _isGrowable: 0
  pickUpSound: {fileID: 8300000, guid: b376f77d175af3e48835302258a30640, type: 3}
