%YAML 1.1
%TAG !u! tag:unity3d.com,2011:
--- !u!114 &11400000
MonoBehaviour:
  m_ObjectHideFlags: 0
  m_CorrespondingSourceObject: {fileID: 0}
  m_PrefabInstance: {fileID: 0}
  m_PrefabAsset: {fileID: 0}
  m_GameObject: {fileID: 0}
  m_Enabled: 1
  m_EditorHideFlags: 0
  m_Script: {fileID: 11500000, guid: 3c2857f205f94ff9b936773ed8049124, type: 3}
  m_Name: SunnyEgg
  m_EditorClassIdentifier: 
  _resourceType: 170
  _cost: 70
  _carrySpriteVerticalOffset: 0
  _sprite: {fileID: 21300000, guid: 0a5e42715a5fb024fb1bb4bd3d53bac9, type: 3}
  _prefab: {fileID: 684468019384295382, guid: e071b528d313f6348b0fd1de583bac48, type: 3}
  _tile: {fileID: 0}
  _isGrowable: 0
  pickUpSound: {fileID: 8300000, guid: dd589cfac3370304da63206f785ae823, type: 3}
